Simulated tumours: multi-sample data
…
# Get tumour data (sequencing)
tumour = simulation_2d[[id]]$sequencing
print(tumour)
#> # A tibble: 4,944 x 4
#>    id      variable value sample
#>    <chr>   <chr>    <dbl> <chr> 
#>  1 __mut1  VAF      0.472 S1    
#>  2 __mut2  VAF      0.549 S1    
#>  3 __mut3  VAF      0.455 S1    
#>  4 __mut4  VAF      0.472 S1    
#>  5 __mut5  VAF      0.531 S1    
#>  6 __mut6  VAF      0.573 S1    
#>  7 __mut7  VAF      0.549 S1    
#>  8 __mut8  VAF      0.495 S1    
#>  9 __mut9  VAF      0.420 S1    
#> 10 __mut10 VAF      0.443 S1    
#> #  with 4,934 more rows
…
# Non-tail mutations
non_tail = assignments %>%
  filter(!tail) %>%
  pull(id)

# Read counts
reads_data = lapply(samples, function(s) {
  tumour  %>%
    filter(sample == s) %>%
    spread(variable, value) 
})
reads_data = Reduce(myjoin, reads_data)

print(reads_data)
#> # A tibble: 824 x 9
#>    id       sample.x  DP.x  NV.x  VAF.x sample.y  DP.y  NV.y VAF.y
#>    <chr>    <chr>    <dbl> <dbl>  <dbl> <chr>    <dbl> <dbl> <dbl>
#>  1 __mut1   S1         108    51 0.472  S2         109    53 0.486
#>  2 __mut10  S1          88    39 0.443  S2         124    58 0.468
#>  3 __mut100 S1         108    61 0.565  S2         107    57 0.533
#>  4 __mut101 S1          91     5 0.0549 S2          92     0 0    
#>  5 __mut102 S1         106     7 0.0660 S2          79     0 0    
#>  6 __mut103 S1         123     9 0.0732 S2         104     0 0    
#>  7 __mut104 S1          95     7 0.0737 S2          91     0 0    
#>  8 __mut105 S1         107     8 0.0748 S2          84     0 0    
#>  9 __mut106 S1         108    13 0.120  S2         100     0 0    
#> 10 __mut107 S1         109    10 0.0917 S2         102     0 0    
#> #  with 814 more rows
…
