Simulated tumours: single-sample data
…
#>   type_number mutation_rate birth_rate death_rates start_time father
#> 1           0            16        1.0         0.2          0      0
#> 2           1            16        1.9         0.2        512      0
#> 3           2             0        0.0         0.0          0      0
#> 
#> $simulation_parameters
#>                   Seed               N clones               N clonal 
#>           "1521808976"                    "2"                  "500" 
#>         Simulation end       Sequencing depth Sequencing depth model 
#>            "179782830"                  "120"                    "2" 
#>         LOD sequencing 
#>                 "0.05" 
#> 
#> $sequencing
#> # A tibble: 1,075 x 6
#>       VAF   ALT    DP CLONE TRUE_VAF TRUE_CLUSTER
#>     <dbl> <int> <int> <int>    <dbl> <fct>       
#>  1 0.0548     8   146     2   0.0377 2dcd        
#>  2 0.0566     6   106     2   0.0377 2dcd        
#>  3 0.0588     6   102     2   0.0377 2dcd        
#>  4 0.0523     9   172     2   0.0377 2dcd        
#>  5 0.0596     9   151     2   0.0490 2a68        
#>  6 0.0536     6   112     2   0.0490 2a68        
#>  7 0.0816    12   147     2   0.0490 2a68        
#>  8 0.075      9   120     2   0.0490 2a68        
#>  9 0.05       5   100     2   0.0490 2a68        
#> 10 0.0667     3    45     2   0.0490 2a68        
#> #  with 1,065 more rows
…
