Deconvolution of WGS lung samples
…
Re-analysis.

# Input data is inside the fit object
lung_input = mobster::LU4_lung_sample$best$data

print(lung_input)
#> # A tibble: 1,282 x 12
#>      Key Callers t_alt_count t_ref_count Variant_Classif    DP    VAF chr  
#>    <int> <chr>         <int>       <int> <chr>            <int>  <dbl> <chr>
#>  1   370 mutect          30          95 intergenic         125 0.24   chr2 
#>  2   371 mutect          10         105 intergenic         115 0.0870 chr2 
#>  3   372 mutect          40         108 intronic           148 0.270  chr2 
#>  4   373 mutect          20         101 intronic           121 0.165  chr2 
#>  5   374 mutect          39          89 intergenic         128 0.305  chr2 
#>  6   375 mutect          41         120 intronic           161 0.255  chr2 
#>  7   376 mutect          43          93 intronic           136 0.316  chr2 
#>  8   377 mutect          22          95 intergenic         117 0.188  chr2 
#>  9   378 mutect            7         104 intergenic         111 0.0631 chr2 
#> 10   379 mutect          35          93 intergenic         128 0.273  chr2 
#> #  with 1,272 more rows, and 4 more variables: from <chr>, ref <chr>,
#> #   alt <chr>, cluster <chr>
…
Downstram read counts based analysis with BMix.

# Non-tail mutations
non_tail_mutations = mobster::Clusters(fit$best) %>% filter(cluster != "Tail")

print(non_tail_mutations)
#> # A tibble: 972 x 14
#>      Key Callers t_alt_count t_ref_count Variant_Classif    DP   VAF chr  
#>    <int> <chr>         <int>       <int> <chr>            <int> <dbl> <chr>
#>  1   370 mutect          30          95 intergenic         125 0.24  chr2 
#>  2   372 mutect          40         108 intronic           148 0.270 chr2 
#>  3   373 mutect          20         101 intronic           121 0.165 chr2 
#>  4   374 mutect          39          89 intergenic         128 0.305 chr2 
#>  5   375 mutect          41         120 intronic           161 0.255 chr2 
#>  6   376 mutect          43          93 intronic           136 0.316 chr2 
#>  7   377 mutect          22          95 intergenic         117 0.188 chr2 
#>  8   379 mutect          35          93 intergenic         128 0.273 chr2 
#>  9   380 mutect          35          95 intergenic         130 0.269 chr2 
#> 10   381 mutect          34         121 intergenic         155 0.219 chr2 
#> #  with 962 more rows, and 6 more variables: from <chr>, ref <chr>, alt <chr>,
#> #   cluster <chr>, Tail <dbl>, C1 <dbl>
…
